<svg xmlns="http://www.w3.org/2000/svg" width="39.079" height="31.346" viewBox="0 0 39.079 31.346">
  <path id="X-footer_Exfin" d="M123.588,121h-12.82l12.365,15.218L109.9,152.346H122.72l6.658-8.477,6.617,8.477h12.985L123.588,121" transform="translate(-109.9 -121)" fill="#fff"/>
</svg>
