{
    "name": "acf/testimonials-one",
    "title": "Testimonials One",
    "description": "Testimonials One",
    "category": "theme",
    "icon": "admin-comments",
    "apiVersion": 2,
    "keywords": [],
    "acf": {
        "mode": "preview",
        "renderTemplate": "render.php"
    },
    "styles": [
        { "name": "default", "label": "Default", "isDefault": true },
        { "name": "white", "label": "White"}
    ],
    "supports": {
        "anchor": true,
        "color": {},
        "alignText": true,
        "spacing": {},
        "typography": {},
        "fullHeight": true
    }
}